PWD /Users/cisary/differentialevolution/src/Disclaimer
INPUT /usr/local/texlive/2012/texmf.cnf
INPUT /usr/local/texlive/2012/texmf/web2c/texmf.cnf
INPUT /usr/local/texlive/2012/texmf-var/web2c/pdftex/pdflatex.fmt
INPUT Disclaimer.tex
OUTPUT Disclaimer.log
INPUT /usr/local/texlive/2012/texmf-dist/tex/latex/base/article.cls
INPUT /usr/local/texlive/2012/texmf-dist/tex/latex/base/article.cls
INPUT /usr/local/texlive/2012/texmf-dist/tex/latex/base/size10.clo
INPUT /usr/local/texlive/2012/texmf-dist/tex/latex/base/size10.clo
INPUT /usr/local/texlive/2012/texmf-dist/tex/latex/minted/minted.sty
INPUT /usr/local/texlive/2012/texmf-dist/tex/latex/minted/minted.sty
INPUT /usr/local/texlive/2012/texmf-dist/tex/latex/graphics/keyval.sty
INPUT /usr/local/texlive/2012/texmf-dist/tex/latex/graphics/keyval.sty
INPUT /usr/local/texlive/2012/texmf-dist/tex/latex/fancyvrb/fancyvrb.sty
INPUT /usr/local/texlive/2012/texmf-dist/tex/latex/fancyvrb/fancyvrb.sty
INPUT /usr/local/texlive/2012/texmf-dist/tex/latex/xcolor/xcolor.sty
INPUT /usr/local/texlive/2012/texmf-dist/tex/latex/xcolor/xcolor.sty
INPUT /usr/local/texlive/2012/texmf-dist/tex/latex/latexconfig/color.cfg
INPUT /usr/local/texlive/2012/texmf-dist/tex/latex/latexconfig/color.cfg
INPUT /usr/local/texlive/2012/texmf-dist/tex/latex/pdftex-def/pdftex.def
INPUT /usr/local/texlive/2012/texmf-dist/tex/latex/pdftex-def/pdftex.def
INPUT /usr/local/texlive/2012/texmf-dist/tex/generic/oberdiek/infwarerr.sty
INPUT /usr/local/texlive/2012/texmf-dist/tex/generic/oberdiek/infwarerr.sty
INPUT /usr/local/texlive/2012/texmf-dist/tex/generic/oberdiek/ltxcmds.sty
INPUT /usr/local/texlive/2012/texmf-dist/tex/generic/oberdiek/ltxcmds.sty
INPUT /usr/local/texlive/2012/texmf-dist/tex/latex/float/float.sty
INPUT /usr/local/texlive/2012/texmf-dist/tex/latex/float/float.sty
INPUT /usr/local/texlive/2012/texmf-dist/tex/latex/base/ifthen.sty
INPUT /usr/local/texlive/2012/texmf-dist/tex/latex/base/ifthen.sty
INPUT /usr/local/texlive/2012/texmf-dist/tex/latex/tools/calc.sty
INPUT /usr/local/texlive/2012/texmf-dist/tex/latex/tools/calc.sty
INPUT /usr/local/texlive/2012/texmf-dist/tex/latex/ifplatform/ifplatform.sty
INPUT /usr/local/texlive/2012/texmf-dist/tex/latex/ifplatform/ifplatform.sty
INPUT /usr/local/texlive/2012/texmf-dist/tex/generic/oberdiek/pdftexcmds.sty
INPUT /usr/local/texlive/2012/texmf-dist/tex/generic/oberdiek/pdftexcmds.sty
INPUT /usr/local/texlive/2012/texmf-dist/tex/generic/oberdiek/ifluatex.sty
INPUT /usr/local/texlive/2012/texmf-dist/tex/generic/oberdiek/ifluatex.sty
INPUT /usr/local/texlive/2012/texmf-dist/tex/generic/oberdiek/ifpdf.sty
INPUT /usr/local/texlive/2012/texmf-dist/tex/generic/oberdiek/ifpdf.sty
INPUT /usr/local/texlive/2012/texmf-dist/tex/generic/oberdiek/catchfile.sty
INPUT /usr/local/texlive/2012/texmf-dist/tex/generic/oberdiek/catchfile.sty
INPUT /usr/local/texlive/2012/texmf-dist/tex/generic/oberdiek/etexcmds.sty
INPUT /usr/local/texlive/2012/texmf-dist/tex/generic/oberdiek/etexcmds.sty
INPUT /dev/null
INPUT Disclaimer.w18
INPUT Disclaimer.w18
INPUT Disclaimer.aex
INPUT /usr/local/texlive/2012/texmf-dist/tex/latex/base/inputenc.sty
INPUT /usr/local/texlive/2012/texmf-dist/tex/latex/base/inputenc.sty
INPUT /usr/local/texlive/2012/texmf-dist/tex/latex/base/utf8.def
INPUT /usr/local/texlive/2012/texmf-dist/tex/latex/base/utf8.def
INPUT /usr/local/texlive/2012/texmf-dist/tex/latex/base/t1enc.dfu
INPUT /usr/local/texlive/2012/texmf-dist/tex/latex/base/t1enc.dfu
INPUT /usr/local/texlive/2012/texmf-dist/tex/latex/base/ot1enc.dfu
INPUT /usr/local/texlive/2012/texmf-dist/tex/latex/base/ot1enc.dfu
INPUT /usr/local/texlive/2012/texmf-dist/tex/latex/base/omsenc.dfu
INPUT /usr/local/texlive/2012/texmf-dist/tex/latex/base/omsenc.dfu
INPUT /usr/local/texlive/2012/texmf-dist/tex/generic/babel/babel.sty
INPUT /usr/local/texlive/2012/texmf-dist/tex/generic/babel/babel.sty
INPUT /usr/local/texlive/2012/texmf-dist/tex/generic/babel/czech.ldf
INPUT /usr/local/texlive/2012/texmf-dist/tex/generic/babel/czech.ldf
INPUT /usr/local/texlive/2012/texmf-dist/tex/generic/babel/babel.def
INPUT /usr/local/texlive/2012/texmf-dist/tex/latex/booktabs/booktabs.sty
INPUT /usr/local/texlive/2012/texmf-dist/tex/latex/booktabs/booktabs.sty
INPUT /usr/local/texlive/2012/texmf-dist/tex/latex/graphics/graphicx.sty
INPUT /usr/local/texlive/2012/texmf-dist/tex/latex/graphics/graphicx.sty
INPUT /usr/local/texlive/2012/texmf-dist/tex/latex/graphics/graphics.sty
INPUT /usr/local/texlive/2012/texmf-dist/tex/latex/graphics/graphics.sty
INPUT /usr/local/texlive/2012/texmf-dist/tex/latex/graphics/trig.sty
INPUT /usr/local/texlive/2012/texmf-dist/tex/latex/graphics/trig.sty
INPUT /usr/local/texlive/2012/texmf-dist/tex/latex/latexconfig/graphics.cfg
INPUT /usr/local/texlive/2012/texmf-dist/tex/latex/latexconfig/graphics.cfg
INPUT /usr/local/texlive/2012/texmf-dist/tex/latex/microtype/microtype.sty
INPUT /usr/local/texlive/2012/texmf-dist/tex/latex/microtype/microtype.sty
INPUT /usr/local/texlive/2012/texmf-dist/tex/latex/microtype/microtype.cfg
INPUT /usr/local/texlive/2012/texmf-dist/tex/latex/microtype/microtype.cfg
INPUT /usr/local/texlive/2012/texmf-dist/tex/latex/microtype/microtype.cfg
INPUT /usr/local/texlive/2012/texmf-dist/tex/latex/preprint/balance.sty
INPUT /usr/local/texlive/2012/texmf-dist/tex/latex/preprint/balance.sty
INPUT /usr/local/texlive/2012/texmf-dist/tex/latex/siunitx/siunitx.sty
INPUT /usr/local/texlive/2012/texmf-dist/tex/latex/siunitx/siunitx.sty
INPUT /usr/local/texlive/2012/texmf-dist/tex/latex/l3kernel/expl3.sty
INPUT /usr/local/texlive/2012/texmf-dist/tex/latex/l3kernel/expl3.sty
INPUT /usr/local/texlive/2012/texmf-dist/tex/latex/l3kernel/l3names.sty
INPUT /usr/local/texlive/2012/texmf-dist/tex/latex/l3kernel/l3names.sty
INPUT /usr/local/texlive/2012/texmf-dist/tex/latex/l3kernel/l3bootstrap.sty
INPUT /usr/local/texlive/2012/texmf-dist/tex/latex/l3kernel/l3bootstrap.sty
INPUT /usr/local/texlive/2012/texmf-dist/tex/latex/etex-pkg/etex.sty
INPUT /usr/local/texlive/2012/texmf-dist/tex/latex/etex-pkg/etex.sty
INPUT /usr/local/texlive/2012/texmf-dist/tex/latex/l3kernel/l3basics.sty
INPUT /usr/local/texlive/2012/texmf-dist/tex/latex/l3kernel/l3basics.sty
INPUT /usr/local/texlive/2012/texmf-dist/tex/latex/l3kernel/l3expan.sty
INPUT /usr/local/texlive/2012/texmf-dist/tex/latex/l3kernel/l3expan.sty
INPUT /usr/local/texlive/2012/texmf-dist/tex/latex/l3kernel/l3tl.sty
INPUT /usr/local/texlive/2012/texmf-dist/tex/latex/l3kernel/l3tl.sty
INPUT /usr/local/texlive/2012/texmf-dist/tex/latex/l3kernel/l3seq.sty
INPUT /usr/local/texlive/2012/texmf-dist/tex/latex/l3kernel/l3seq.sty
INPUT /usr/local/texlive/2012/texmf-dist/tex/latex/l3kernel/l3int.sty
INPUT /usr/local/texlive/2012/texmf-dist/tex/latex/l3kernel/l3int.sty
INPUT /usr/local/texlive/2012/texmf-dist/tex/latex/l3kernel/l3quark.sty
INPUT /usr/local/texlive/2012/texmf-dist/tex/latex/l3kernel/l3quark.sty
INPUT /usr/local/texlive/2012/texmf-dist/tex/latex/l3kernel/l3prg.sty
INPUT /usr/local/texlive/2012/texmf-dist/tex/latex/l3kernel/l3prg.sty
INPUT /usr/local/texlive/2012/texmf-dist/tex/latex/l3kernel/l3clist.sty
INPUT /usr/local/texlive/2012/texmf-dist/tex/latex/l3kernel/l3clist.sty
INPUT /usr/local/texlive/2012/texmf-dist/tex/latex/l3kernel/l3token.sty
INPUT /usr/local/texlive/2012/texmf-dist/tex/latex/l3kernel/l3token.sty
INPUT /usr/local/texlive/2012/texmf-dist/tex/latex/l3kernel/l3prop.sty
INPUT /usr/local/texlive/2012/texmf-dist/tex/latex/l3kernel/l3prop.sty
INPUT /usr/local/texlive/2012/texmf-dist/tex/latex/l3kernel/l3msg.sty
INPUT /usr/local/texlive/2012/texmf-dist/tex/latex/l3kernel/l3msg.sty
INPUT /usr/local/texlive/2012/texmf-dist/tex/latex/l3kernel/l3file.sty
INPUT /usr/local/texlive/2012/texmf-dist/tex/latex/l3kernel/l3file.sty
INPUT /usr/local/texlive/2012/texmf-dist/tex/latex/l3kernel/l3skip.sty
INPUT /usr/local/texlive/2012/texmf-dist/tex/latex/l3kernel/l3skip.sty
INPUT /usr/local/texlive/2012/texmf-dist/tex/latex/l3kernel/l3keys.sty
INPUT /usr/local/texlive/2012/texmf-dist/tex/latex/l3kernel/l3keys.sty
INPUT /usr/local/texlive/2012/texmf-dist/tex/latex/l3kernel/l3fp.sty
INPUT /usr/local/texlive/2012/texmf-dist/tex/latex/l3kernel/l3fp.sty
INPUT /usr/local/texlive/2012/texmf-dist/tex/latex/l3kernel/l3box.sty
INPUT /usr/local/texlive/2012/texmf-dist/tex/latex/l3kernel/l3box.sty
INPUT /usr/local/texlive/2012/texmf-dist/tex/latex/l3kernel/l3coffins.sty
INPUT /usr/local/texlive/2012/texmf-dist/tex/latex/l3kernel/l3coffins.sty
INPUT /usr/local/texlive/2012/texmf-dist/tex/latex/l3kernel/l3color.sty
INPUT /usr/local/texlive/2012/texmf-dist/tex/latex/l3kernel/l3color.sty
INPUT /usr/local/texlive/2012/texmf-dist/tex/latex/l3kernel/l3luatex.sty
INPUT /usr/local/texlive/2012/texmf-dist/tex/latex/l3kernel/l3luatex.sty
INPUT /usr/local/texlive/2012/texmf-dist/tex/latex/amsmath/amstext.sty
INPUT /usr/local/texlive/2012/texmf-dist/tex/latex/amsmath/amstext.sty
INPUT /usr/local/texlive/2012/texmf-dist/tex/latex/amsmath/amsgen.sty
INPUT /usr/local/texlive/2012/texmf-dist/tex/latex/amsmath/amsgen.sty
INPUT /usr/local/texlive/2012/texmf-dist/tex/latex/tools/array.sty
INPUT /usr/local/texlive/2012/texmf-dist/tex/latex/tools/array.sty
INPUT /usr/local/texlive/2012/texmf-dist/tex/latex/l3packages/l3keys2e/l3keys2e.sty
INPUT /usr/local/texlive/2012/texmf-dist/tex/latex/l3packages/l3keys2e/l3keys2e.sty
INPUT /usr/local/texlive/2012/texmf-dist/tex/latex/l3packages/xparse/xparse.sty
INPUT /usr/local/texlive/2012/texmf-dist/tex/latex/l3packages/xparse/xparse.sty
INPUT /usr/local/texlive/2012/texmf-dist/tex/latex/beamer/translator/translator.sty
INPUT /usr/local/texlive/2012/texmf-dist/tex/latex/beamer/translator/translator.sty
INPUT /usr/local/texlive/2012/texmf-dist/tex/latex/beamer/translator/translator.sty
INPUT /usr/local/texlive/2012/texmf-dist/tex/latex/beamer/translator/translator-language-mappings.tex
INPUT /usr/local/texlive/2012/texmf-dist/tex/latex/beamer/translator/translator-language-mappings.tex
INPUT /usr/local/texlive/2012/texmf-dist/tex/latex/l3packages/xfrac/xfrac.sty
INPUT /usr/local/texlive/2012/texmf-dist/tex/latex/l3packages/xfrac/xfrac.sty
INPUT /usr/local/texlive/2012/texmf-dist/tex/latex/base/textcomp.sty
INPUT /usr/local/texlive/2012/texmf-dist/tex/latex/base/textcomp.sty
INPUT /usr/local/texlive/2012/texmf-dist/tex/latex/base/ts1enc.def
INPUT /usr/local/texlive/2012/texmf-dist/tex/latex/base/ts1enc.def
INPUT /usr/local/texlive/2012/texmf-dist/tex/latex/base/ts1enc.dfu
INPUT /usr/local/texlive/2012/texmf-dist/tex/latex/base/ts1enc.dfu
INPUT /usr/local/texlive/2012/texmf-dist/tex/latex/l3packages/xtemplate/xtemplate.sty
INPUT /usr/local/texlive/2012/texmf-dist/tex/latex/l3packages/xtemplate/xtemplate.sty
INPUT /usr/local/texlive/2012/texmf-dist/tex/latex/siunitx/config/siunitx-version-1.cfg
INPUT /usr/local/texlive/2012/texmf-dist/tex/latex/siunitx/config/siunitx-version-1.cfg
INPUT /usr/local/texlive/2012/texmf-dist/tex/latex/hyphenat/hyphenat.sty
INPUT /usr/local/texlive/2012/texmf-dist/tex/latex/hyphenat/hyphenat.sty
INPUT /usr/local/texlive/2012/texmf-dist/tex/latex/todonotes/todonotes.sty
INPUT /usr/local/texlive/2012/texmf-dist/tex/latex/todonotes/todonotes.sty
INPUT /usr/local/texlive/2012/texmf-dist/tex/latex/xkeyval/xkeyval.sty
INPUT /usr/local/texlive/2012/texmf-dist/tex/latex/xkeyval/xkeyval.sty
INPUT /usr/local/texlive/2012/texmf-dist/tex/generic/xkeyval/xkeyval.tex
INPUT /usr/local/texlive/2012/texmf-dist/tex/latex/pgf/frontendlayer/tikz.sty
INPUT /usr/local/texlive/2012/texmf-dist/tex/latex/pgf/frontendlayer/tikz.sty
INPUT /usr/local/texlive/2012/texmf-dist/tex/latex/pgf/basiclayer/pgf.sty
INPUT /usr/local/texlive/2012/texmf-dist/tex/latex/pgf/basiclayer/pgf.sty
INPUT /usr/local/texlive/2012/texmf-dist/tex/latex/pgf/utilities/pgfrcs.sty
INPUT /usr/local/texlive/2012/texmf-dist/tex/latex/pgf/utilities/pgfrcs.sty
INPUT /usr/local/texlive/2012/texmf-dist/tex/generic/pgf/utilities/pgfutil-common.tex
INPUT /usr/local/texlive/2012/texmf-dist/tex/generic/pgf/utilities/pgfutil-latex.def
INPUT /usr/local/texlive/2012/texmf-dist/tex/latex/ms/everyshi.sty
INPUT /usr/local/texlive/2012/texmf-dist/tex/latex/ms/everyshi.sty
INPUT /usr/local/texlive/2012/texmf-dist/tex/generic/pgf/utilities/pgfrcs.code.tex
INPUT /usr/local/texlive/2012/texmf-dist/tex/generic/pgf/utilities/pgfrcs.code.tex
INPUT /usr/local/texlive/2012/texmf-dist/tex/latex/pgf/basiclayer/pgfcore.sty
INPUT /usr/local/texlive/2012/texmf-dist/tex/latex/pgf/basiclayer/pgfcore.sty
INPUT /usr/local/texlive/2012/texmf-dist/tex/latex/pgf/systemlayer/pgfsys.sty
INPUT /usr/local/texlive/2012/texmf-dist/tex/latex/pgf/systemlayer/pgfsys.sty
INPUT /usr/local/texlive/2012/texmf-dist/tex/generic/pgf/systemlayer/pgfsys.code.tex
INPUT /usr/local/texlive/2012/texmf-dist/tex/generic/pgf/systemlayer/pgfsys.code.tex
INPUT /usr/local/texlive/2012/texmf-dist/tex/generic/pgf/utilities/pgfkeys.code.tex
INPUT /usr/local/texlive/2012/texmf-dist/tex/generic/pgf/utilities/pgfkeysfiltered.code.tex
INPUT /usr/local/texlive/2012/texmf-dist/tex/generic/pgf/systemlayer/pgf.cfg
INPUT /usr/local/texlive/2012/texmf-dist/tex/generic/pgf/systemlayer/pgfsys-pdftex.def
INPUT /usr/local/texlive/2012/texmf-dist/tex/generic/pgf/systemlayer/pgfsys-pdftex.def
INPUT /usr/local/texlive/2012/texmf-dist/tex/generic/pgf/systemlayer/pgfsys-common-pdf.def
INPUT /usr/local/texlive/2012/texmf-dist/tex/generic/pgf/systemlayer/pgfsyssoftpath.code.tex
INPUT /usr/local/texlive/2012/texmf-dist/tex/generic/pgf/systemlayer/pgfsyssoftpath.code.tex
INPUT /usr/local/texlive/2012/texmf-dist/tex/generic/pgf/systemlayer/pgfsysprotocol.code.tex
INPUT /usr/local/texlive/2012/texmf-dist/tex/generic/pgf/systemlayer/pgfsysprotocol.code.tex
INPUT /usr/local/texlive/2012/texmf-dist/tex/generic/pgf/basiclayer/pgfcore.code.tex
INPUT /usr/local/texlive/2012/texmf-dist/tex/generic/pgf/basiclayer/pgfcore.code.tex
INPUT /usr/local/texlive/2012/texmf-dist/tex/generic/pgf/math/pgfmath.code.tex
INPUT /usr/local/texlive/2012/texmf-dist/tex/generic/pgf/math/pgfmathcalc.code.tex
INPUT /usr/local/texlive/2012/texmf-dist/tex/generic/pgf/math/pgfmathutil.code.tex
INPUT /usr/local/texlive/2012/texmf-dist/tex/generic/pgf/math/pgfmathparser.code.tex
INPUT /usr/local/texlive/2012/texmf-dist/tex/generic/pgf/math/pgfmathfunctions.code.tex
INPUT /usr/local/texlive/2012/texmf-dist/tex/generic/pgf/math/pgfmathfunctions.basic.code.tex
INPUT /usr/local/texlive/2012/texmf-dist/tex/generic/pgf/math/pgfmathfunctions.trigonometric.code.tex
INPUT /usr/local/texlive/2012/texmf-dist/tex/generic/pgf/math/pgfmathfunctions.random.code.tex
INPUT /usr/local/texlive/2012/texmf-dist/tex/generic/pgf/math/pgfmathfunctions.comparison.code.tex
INPUT /usr/local/texlive/2012/texmf-dist/tex/generic/pgf/math/pgfmathfunctions.base.code.tex
INPUT /usr/local/texlive/2012/texmf-dist/tex/generic/pgf/math/pgfmathfunctions.round.code.tex
INPUT /usr/local/texlive/2012/texmf-dist/tex/generic/pgf/math/pgfmathfunctions.misc.code.tex
INPUT /usr/local/texlive/2012/texmf-dist/tex/generic/pgf/math/pgfmathfloat.code.tex
INPUT /usr/local/texlive/2012/texmf-dist/tex/generic/pgf/basiclayer/pgfcorepoints.code.tex
INPUT /usr/local/texlive/2012/texmf-dist/tex/generic/pgf/basiclayer/pgfcorepathconstruct.code.tex
INPUT /usr/local/texlive/2012/texmf-dist/tex/generic/pgf/basiclayer/pgfcorepathusage.code.tex
INPUT /usr/local/texlive/2012/texmf-dist/tex/generic/pgf/basiclayer/pgfcorescopes.code.tex
INPUT /usr/local/texlive/2012/texmf-dist/tex/generic/pgf/basiclayer/pgfcoregraphicstate.code.tex
INPUT /usr/local/texlive/2012/texmf-dist/tex/generic/pgf/basiclayer/pgfcoretransformations.code.tex
INPUT /usr/local/texlive/2012/texmf-dist/tex/generic/pgf/basiclayer/pgfcorequick.code.tex
INPUT /usr/local/texlive/2012/texmf-dist/tex/generic/pgf/basiclayer/pgfcoreobjects.code.tex
INPUT /usr/local/texlive/2012/texmf-dist/tex/generic/pgf/basiclayer/pgfcorepathprocessing.code.tex
INPUT /usr/local/texlive/2012/texmf-dist/tex/generic/pgf/basiclayer/pgfcorearrows.code.tex
INPUT /usr/local/texlive/2012/texmf-dist/tex/generic/pgf/basiclayer/pgfcoreshade.code.tex
INPUT /usr/local/texlive/2012/texmf-dist/tex/generic/pgf/basiclayer/pgfcoreimage.code.tex
INPUT /usr/local/texlive/2012/texmf-dist/tex/generic/pgf/basiclayer/pgfcoreexternal.code.tex
INPUT /usr/local/texlive/2012/texmf-dist/tex/generic/pgf/basiclayer/pgfcorelayers.code.tex
INPUT /usr/local/texlive/2012/texmf-dist/tex/generic/pgf/basiclayer/pgfcoretransparency.code.tex
INPUT /usr/local/texlive/2012/texmf-dist/tex/generic/pgf/basiclayer/pgfcorepatterns.code.tex
INPUT /usr/local/texlive/2012/texmf-dist/tex/generic/pgf/modules/pgfmoduleshapes.code.tex
INPUT /usr/local/texlive/2012/texmf-dist/tex/generic/pgf/modules/pgfmoduleplot.code.tex
INPUT /usr/local/texlive/2012/texmf-dist/tex/latex/pgf/compatibility/pgfcomp-version-0-65.sty
INPUT /usr/local/texlive/2012/texmf-dist/tex/latex/pgf/compatibility/pgfcomp-version-0-65.sty
INPUT /usr/local/texlive/2012/texmf-dist/tex/latex/pgf/compatibility/pgfcomp-version-1-18.sty
INPUT /usr/local/texlive/2012/texmf-dist/tex/latex/pgf/compatibility/pgfcomp-version-1-18.sty
INPUT /usr/local/texlive/2012/texmf-dist/tex/latex/pgf/utilities/pgffor.sty
INPUT /usr/local/texlive/2012/texmf-dist/tex/latex/pgf/utilities/pgffor.sty
INPUT /usr/local/texlive/2012/texmf-dist/tex/latex/pgf/utilities/pgfkeys.sty
INPUT /usr/local/texlive/2012/texmf-dist/tex/latex/pgf/utilities/pgfkeys.sty
INPUT /usr/local/texlive/2012/texmf-dist/tex/generic/pgf/utilities/pgfkeys.code.tex
INPUT /usr/local/texlive/2012/texmf-dist/tex/generic/pgf/utilities/pgfkeys.code.tex
INPUT /usr/local/texlive/2012/texmf-dist/tex/generic/pgf/utilities/pgffor.code.tex
INPUT /usr/local/texlive/2012/texmf-dist/tex/generic/pgf/utilities/pgffor.code.tex
INPUT /usr/local/texlive/2012/texmf-dist/tex/generic/pgf/frontendlayer/tikz/tikz.code.tex
INPUT /usr/local/texlive/2012/texmf-dist/tex/generic/pgf/frontendlayer/tikz/tikz.code.tex
INPUT /usr/local/texlive/2012/texmf-dist/tex/generic/pgf/libraries/pgflibraryplothandlers.code.tex
INPUT /usr/local/texlive/2012/texmf-dist/tex/generic/pgf/modules/pgfmodulematrix.code.tex
INPUT /usr/local/texlive/2012/texmf-dist/tex/generic/pgf/frontendlayer/tikz/libraries/tikzlibrarytopaths.code.tex
INPUT /usr/local/texlive/2012/texmf-dist/tex/generic/pgf/frontendlayer/tikz/libraries/tikzlibrarypositioning.code.tex
INPUT /usr/local/texlive/2012/texmf-dist/tex/latex/subfigure/subfigure.sty
INPUT /usr/local/texlive/2012/texmf-dist/tex/latex/subfigure/subfigure.sty
INPUT /usr/local/texlive/2012/texmf-dist/tex/latex/subfigure/subfigure.cfg
INPUT /usr/local/texlive/2012/texmf-dist/tex/latex/subfigure/subfigure.cfg
INPUT /usr/local/texlive/2012/texmf-dist/tex/latex/listings/listings.sty
INPUT /usr/local/texlive/2012/texmf-dist/tex/latex/listings/listings.sty
INPUT /usr/local/texlive/2012/texmf-dist/tex/latex/listings/lstmisc.sty
INPUT /usr/local/texlive/2012/texmf-dist/tex/latex/listings/lstmisc.sty
INPUT /usr/local/texlive/2012/texmf-dist/tex/latex/listings/listings.cfg
INPUT /usr/local/texlive/2012/texmf-dist/tex/latex/listings/listings.cfg
INPUT /usr/local/texlive/2012/texmf-dist/tex/latex/algorithm2e/algorithm2e.sty
INPUT /usr/local/texlive/2012/texmf-dist/tex/latex/algorithm2e/algorithm2e.sty
INPUT /usr/local/texlive/2012/texmf-dist/tex/latex/tools/xspace.sty
INPUT /usr/local/texlive/2012/texmf-dist/tex/latex/tools/xspace.sty
INPUT /usr/local/texlive/2012/texmf-dist/tex/latex/relsize/relsize.sty
INPUT /usr/local/texlive/2012/texmf-dist/tex/latex/relsize/relsize.sty
INPUT /usr/local/texlive/2012/texmf-dist/tex/latex/natbib/natbib.sty
INPUT /usr/local/texlive/2012/texmf-dist/tex/latex/natbib/natbib.sty
INPUT /usr/local/texlive/2012/texmf-dist/tex/latex/acronym/acronym.sty
INPUT /usr/local/texlive/2012/texmf-dist/tex/latex/acronym/acronym.sty
INPUT /usr/local/texlive/2012/texmf-dist/tex/latex/bigfoot/suffix.sty
INPUT /usr/local/texlive/2012/texmf-dist/tex/latex/bigfoot/suffix.sty
INPUT /usr/local/texlive/2012/texmf-dist/tex/generic/pgf/frontendlayer/tikz/libraries/tikzlibrarycalc.code.tex
INPUT /usr/local/texlive/2012/texmf-dist/tex/generic/pgf/frontendlayer/tikz/libraries/tikzlibrarytrees.code.tex
INPUT /usr/local/texlive/2012/texmf-dist/tex/generic/pgf/frontendlayer/tikz/libraries/tikzlibraryarrows.code.tex
INPUT /usr/local/texlive/2012/texmf-dist/tex/generic/pgf/libraries/pgflibraryarrows.code.tex
INPUT /usr/local/texlive/2012/texmf-dist/tex/generic/pgf/frontendlayer/tikz/libraries/tikzlibrarychains.code.tex
INPUT /usr/local/texlive/2012/texmf-dist/tex/generic/pgf/frontendlayer/tikz/libraries/tikzlibraryshapes.geometric.code.tex
INPUT /usr/local/texlive/2012/texmf-dist/tex/generic/pgf/libraries/shapes/pgflibraryshapes.geometric.code.tex
INPUT /usr/local/texlive/2012/texmf-dist/tex/generic/pgf/frontendlayer/tikz/libraries/tikzlibrarydecorations.pathreplacing.code.tex
INPUT /usr/local/texlive/2012/texmf-dist/tex/generic/pgf/frontendlayer/tikz/libraries/tikzlibrarydecorations.code.tex
INPUT /usr/local/texlive/2012/texmf-dist/tex/generic/pgf/modules/pgfmoduledecorations.code.tex
INPUT /usr/local/texlive/2012/texmf-dist/tex/generic/pgf/libraries/decorations/pgflibrarydecorations.pathreplacing.code.tex
INPUT /usr/local/texlive/2012/texmf-dist/tex/generic/pgf/frontendlayer/tikz/libraries/tikzlibrarydecorations.pathmorphing.code.tex
INPUT /usr/local/texlive/2012/texmf-dist/tex/generic/pgf/libraries/decorations/pgflibrarydecorations.pathmorphing.code.tex
INPUT /usr/local/texlive/2012/texmf-dist/tex/generic/pgf/frontendlayer/tikz/libraries/tikzlibraryshapes.code.tex
INPUT /usr/local/texlive/2012/texmf-dist/tex/generic/pgf/frontendlayer/tikz/libraries/tikzlibraryshapes.misc.code.tex
INPUT /usr/local/texlive/2012/texmf-dist/tex/generic/pgf/libraries/shapes/pgflibraryshapes.misc.code.tex
INPUT /usr/local/texlive/2012/texmf-dist/tex/generic/pgf/frontendlayer/tikz/libraries/tikzlibraryshapes.symbols.code.tex
INPUT /usr/local/texlive/2012/texmf-dist/tex/generic/pgf/libraries/shapes/pgflibraryshapes.symbols.code.tex
INPUT /usr/local/texlive/2012/texmf-dist/tex/generic/pgf/frontendlayer/tikz/libraries/tikzlibraryshapes.arrows.code.tex
INPUT /usr/local/texlive/2012/texmf-dist/tex/generic/pgf/libraries/shapes/pgflibraryshapes.arrows.code.tex
INPUT /usr/local/texlive/2012/texmf-dist/tex/generic/pgf/frontendlayer/tikz/libraries/tikzlibraryshapes.callouts.code.tex
INPUT /usr/local/texlive/2012/texmf-dist/tex/generic/pgf/libraries/shapes/pgflibraryshapes.callouts.code.tex
INPUT /usr/local/texlive/2012/texmf-dist/tex/generic/pgf/frontendlayer/tikz/libraries/tikzlibraryshapes.multipart.code.tex
INPUT /usr/local/texlive/2012/texmf-dist/tex/generic/pgf/libraries/shapes/pgflibraryshapes.multipart.code.tex
INPUT /usr/local/texlive/2012/texmf-dist/tex/generic/pgf/frontendlayer/tikz/libraries/tikzlibrarymatrix.code.tex
INPUT /usr/local/texlive/2012/texmf-dist/tex/latex/base/fontenc.sty
INPUT /usr/local/texlive/2012/texmf-dist/tex/latex/base/fontenc.sty
INPUT /usr/local/texlive/2012/texmf-dist/tex/latex/base/t1enc.def
INPUT /usr/local/texlive/2012/texmf-dist/tex/latex/base/t1enc.def
INPUT /usr/local/texlive/2012/texmf-dist/fonts/map/fontname/texfonts.map
INPUT /usr/local/texlive/2012/texmf-dist/fonts/tfm/jknappen/ec/ecrm1000.tfm
INPUT Disclaimer.aux
INPUT Disclaimer.aux
OUTPUT Disclaimer.aux
INPUT /usr/local/texlive/2012/texmf-dist/tex/latex/base/ts1cmr.fd
INPUT /usr/local/texlive/2012/texmf-dist/tex/latex/base/ts1cmr.fd
INPUT /usr/local/texlive/2012/texmf-dist/tex/context/base/supp-pdf.mkii
INPUT /usr/local/texlive/2012/texmf-dist/tex/context/base/supp-pdf.mkii
INPUT Disclaimer.pyg
INPUT Disclaimer.pyg
INPUT /usr/local/texlive/2012/texmf-dist/tex/latex/oberdiek/epstopdf-base.sty
INPUT /usr/local/texlive/2012/texmf-dist/tex/latex/oberdiek/epstopdf-base.sty
INPUT /usr/local/texlive/2012/texmf-dist/tex/latex/oberdiek/grfext.sty
INPUT /usr/local/texlive/2012/texmf-dist/tex/latex/oberdiek/grfext.sty
INPUT /usr/local/texlive/2012/texmf-dist/tex/generic/oberdiek/kvdefinekeys.sty
INPUT /usr/local/texlive/2012/texmf-dist/tex/generic/oberdiek/kvdefinekeys.sty
INPUT /usr/local/texlive/2012/texmf-dist/tex/latex/oberdiek/kvoptions.sty
INPUT /usr/local/texlive/2012/texmf-dist/tex/latex/oberdiek/kvoptions.sty
INPUT /usr/local/texlive/2012/texmf-dist/tex/generic/oberdiek/kvsetkeys.sty
INPUT /usr/local/texlive/2012/texmf-dist/tex/generic/oberdiek/kvsetkeys.sty
INPUT /usr/local/texlive/2012/texmf-dist/tex/latex/latexconfig/epstopdf-sys.cfg
INPUT /usr/local/texlive/2012/texmf-dist/tex/latex/latexconfig/epstopdf-sys.cfg
INPUT /usr/local/texlive/2012/texmf-dist/tex/latex/microtype/mt-cmr.cfg
INPUT /usr/local/texlive/2012/texmf-dist/tex/latex/microtype/mt-cmr.cfg
INPUT /usr/local/texlive/2012/texmf-dist/tex/latex/beamer/translator/dicts/translator-basic-dictionary/translator-basic-dictionary-English.dict
INPUT /usr/local/texlive/2012/texmf-dist/tex/latex/beamer/translator/dicts/translator-basic-dictionary/translator-basic-dictionary-English.dict
INPUT /usr/local/texlive/2012/texmf-dist/tex/latex/siunitx/config/siunitx-abbreviations.cfg
INPUT /usr/local/texlive/2012/texmf-dist/tex/latex/siunitx/config/siunitx-abbreviations.cfg
INPUT /usr/local/texlive/2012/texmf-dist/tex/latex/siunitx/config/siunitx-binary.cfg
INPUT /usr/local/texlive/2012/texmf-dist/tex/latex/siunitx/config/siunitx-binary.cfg
INPUT /usr/local/texlive/2012/texmf-dist/fonts/tfm/public/cm/cmss10.tfm
INPUT /usr/local/texlive/2012/texmf-dist/fonts/tfm/public/cm/cmss8.tfm
INPUT /usr/local/texlive/2012/texmf-dist/fonts/tfm/public/cm/cmss8.tfm
INPUT /usr/local/texlive/2012/texmf-dist/fonts/tfm/public/cm/cmtt10.tfm
INPUT /usr/local/texlive/2012/texmf-dist/fonts/tfm/public/cm/cmtt8.tfm
INPUT /usr/local/texlive/2012/texmf-dist/fonts/tfm/public/cm/cmtt8.tfm
INPUT /usr/local/texlive/2012/texmf-dist/fonts/tfm/jknappen/ec/ecrm1728.tfm
INPUT /usr/local/texlive/2012/texmf-dist/fonts/tfm/jknappen/ec/ecrm1200.tfm
INPUT /usr/local/texlive/2012/texmf-dist/fonts/tfm/public/cm/cmr12.tfm
INPUT /usr/local/texlive/2012/texmf-dist/fonts/tfm/public/cm/cmr8.tfm
INPUT /usr/local/texlive/2012/texmf-dist/fonts/tfm/public/cm/cmr6.tfm
INPUT /usr/local/texlive/2012/texmf-dist/fonts/tfm/public/cm/cmmi12.tfm
INPUT /usr/local/texlive/2012/texmf-dist/fonts/tfm/public/cm/cmmi8.tfm
INPUT /usr/local/texlive/2012/texmf-dist/fonts/tfm/public/cm/cmmi6.tfm
INPUT /usr/local/texlive/2012/texmf-dist/fonts/tfm/public/cm/cmsy10.tfm
INPUT /usr/local/texlive/2012/texmf-dist/fonts/tfm/public/cm/cmsy8.tfm
INPUT /usr/local/texlive/2012/texmf-dist/fonts/tfm/public/cm/cmsy6.tfm
INPUT /usr/local/texlive/2012/texmf-dist/fonts/tfm/public/cm/cmss12.tfm
INPUT /usr/local/texlive/2012/texmf-dist/fonts/tfm/public/cm/cmss8.tfm
INPUT /usr/local/texlive/2012/texmf-dist/fonts/tfm/public/cm/cmss8.tfm
INPUT /usr/local/texlive/2012/texmf-dist/fonts/tfm/public/cm/cmtt12.tfm
INPUT /usr/local/texlive/2012/texmf-dist/fonts/tfm/public/cm/cmtt8.tfm
INPUT /usr/local/texlive/2012/texmf-dist/fonts/tfm/public/cm/cmtt8.tfm
INPUT /usr/local/texlive/2012/texmf-dist/fonts/tfm/jknappen/ec/ecbx1000.tfm
OUTPUT Disclaimer.pyg
INPUT Disclaimer.out.pyg
INPUT Disclaimer.out.pyg
INPUT /usr/local/texlive/2012/texmf-dist/fonts/tfm/jknappen/ec/ecrm0800.tfm
INPUT /usr/local/texlive/2012/texmf-dist/tex/latex/base/t1cmtt.fd
INPUT /usr/local/texlive/2012/texmf-dist/tex/latex/base/t1cmtt.fd
INPUT /usr/local/texlive/2012/texmf-dist/fonts/tfm/jknappen/ec/ectt0800.tfm
INPUT /usr/local/texlive/2012/texmf-dist/fonts/tfm/jknappen/ec/ecit0800.tfm
OUTPUT Disclaimer.pdf
INPUT /usr/local/texlive/2012/texmf-var/fonts/map/pdftex/updmap/pdftex.map
INPUT Disclaimer.aux
INPUT /usr/local/texlive/2012/texmf-dist/fonts/enc/dvips/cm-super/cm-super-t1.enc
INPUT /usr/local/texlive/2012/texmf-dist/fonts/type1/public/cm-super/sfbx1000.pfb
INPUT /usr/local/texlive/2012/texmf-dist/fonts/type1/public/cm-super/sfit0800.pfb
INPUT /usr/local/texlive/2012/texmf-dist/fonts/type1/public/cm-super/sfrm1000.pfb
INPUT /usr/local/texlive/2012/texmf-dist/fonts/type1/public/cm-super/sfrm1200.pfb
INPUT /usr/local/texlive/2012/texmf-dist/fonts/type1/public/cm-super/sfrm1728.pfb
INPUT /usr/local/texlive/2012/texmf-dist/fonts/type1/public/cm-super/sftt0800.pfb
