# Fdb version 3
["pdflatex"] 1381865341 "Disclaimer.tex" "Disclaimer.pdf" "Disclaimer" 1381865344
  "/dev/null" 1381864876 0 d41d8cd98f00b204e9800998ecf8427e ""
  "/usr/local/texlive/2012/texmf-dist/fonts/enc/dvips/cm-super/cm-super-t1.enc" 1136849721 2971 def0b6c1f0b107b3b936def894055589 ""
  "/usr/local/texlive/2012/texmf-dist/fonts/map/fontname/texfonts.map" 1272929888 3287 e6b82fe08f5336d4d5ebc73fb1152e87 ""
  "/usr/local/texlive/2012/texmf-dist/fonts/tfm/jknappen/ec/ecbx1000.tfm" 1136768653 3584 2d666ecf6d466d8b007246bc2f94d9da ""
  "/usr/local/texlive/2012/texmf-dist/fonts/tfm/jknappen/ec/ecit0800.tfm" 1136768653 1536 09682d3e827df9145fea3c41a21d8b01 ""
  "/usr/local/texlive/2012/texmf-dist/fonts/tfm/jknappen/ec/ecrm0800.tfm" 1136768653 3584 49064b465390a8e316a3c8417a050403 ""
  "/usr/local/texlive/2012/texmf-dist/fonts/tfm/jknappen/ec/ecrm1000.tfm" 1136768653 3584 adb004a0c8e7c46ee66cad73671f37b4 ""
  "/usr/local/texlive/2012/texmf-dist/fonts/tfm/jknappen/ec/ecrm1200.tfm" 1136768653 3584 f80ddd985bd00e29e9a6047ebd9d4781 ""
  "/usr/local/texlive/2012/texmf-dist/fonts/tfm/jknappen/ec/ecrm1728.tfm" 1136768653 3584 3c76ccb63eda935a68ba65ba9da29f1a ""
  "/usr/local/texlive/2012/texmf-dist/fonts/tfm/jknappen/ec/ectt0800.tfm" 1136768653 1536 0b0b8ca286de6a006b681926403f35cd ""
  "/usr/local/texlive/2012/texmf-dist/fonts/tfm/public/cm/cmmi12.tfm" 1136768653 1524 4414a8315f39513458b80dfc63bff03a ""
  "/usr/local/texlive/2012/texmf-dist/fonts/tfm/public/cm/cmmi6.tfm" 1136768653 1512 f21f83efb36853c0b70002322c1ab3ad ""
  "/usr/local/texlive/2012/texmf-dist/fonts/tfm/public/cm/cmmi8.tfm" 1136768653 1520 eccf95517727cb11801f4f1aee3a21b4 ""
  "/usr/local/texlive/2012/texmf-dist/fonts/tfm/public/cm/cmr12.tfm" 1136768653 1288 655e228510b4c2a1abe905c368440826 ""
  "/usr/local/texlive/2012/texmf-dist/fonts/tfm/public/cm/cmr6.tfm" 1136768653 1300 b62933e007d01cfd073f79b963c01526 ""
  "/usr/local/texlive/2012/texmf-dist/fonts/tfm/public/cm/cmr8.tfm" 1136768653 1292 21c1c5bfeaebccffdb478fd231a0997d ""
  "/usr/local/texlive/2012/texmf-dist/fonts/tfm/public/cm/cmss10.tfm" 1136768653 1316 b636689f1933f24d1294acdf6041daaa ""
  "/usr/local/texlive/2012/texmf-dist/fonts/tfm/public/cm/cmss12.tfm" 1136768653 1324 37b971caf729d7edd9cbb9f9b0ea76eb ""
  "/usr/local/texlive/2012/texmf-dist/fonts/tfm/public/cm/cmss8.tfm" 1136768653 1296 d77f431d10d47c8ea2cc18cf45346274 ""
  "/usr/local/texlive/2012/texmf-dist/fonts/tfm/public/cm/cmsy10.tfm" 1136768653 1124 6c73e740cf17375f03eec0ee63599741 ""
  "/usr/local/texlive/2012/texmf-dist/fonts/tfm/public/cm/cmsy6.tfm" 1136768653 1116 933a60c408fc0a863a92debe84b2d294 ""
  "/usr/local/texlive/2012/texmf-dist/fonts/tfm/public/cm/cmsy8.tfm" 1136768653 1120 8b7d695260f3cff42e636090a8002094 ""
  "/usr/local/texlive/2012/texmf-dist/fonts/tfm/public/cm/cmtt10.tfm" 1136768653 768 1321e9409b4137d6fb428ac9dc956269 ""
  "/usr/local/texlive/2012/texmf-dist/fonts/tfm/public/cm/cmtt12.tfm" 1136768653 772 9a936b7f5e2ff0557fce0f62822f0bbf ""
  "/usr/local/texlive/2012/texmf-dist/fonts/tfm/public/cm/cmtt8.tfm" 1136768653 768 d7b9a2629a0c353102ad947dc9221d49 ""
  "/usr/local/texlive/2012/texmf-dist/fonts/type1/public/cm-super/sfbx1000.pfb" 1215737283 145408 43d44302ca7d82d487f511f83e309505 ""
  "/usr/local/texlive/2012/texmf-dist/fonts/type1/public/cm-super/sfit0800.pfb" 1215737283 150882 85f9c798053ab155eb37c34984ba1d2f ""
  "/usr/local/texlive/2012/texmf-dist/fonts/type1/public/cm-super/sfrm1000.pfb" 1215737283 138258 6525c253f16cededa14c7fd0da7f67b2 ""
  "/usr/local/texlive/2012/texmf-dist/fonts/type1/public/cm-super/sfrm1200.pfb" 1215737283 136101 f533469f523533d38317ab5729d00c8a ""
  "/usr/local/texlive/2012/texmf-dist/fonts/type1/public/cm-super/sfrm1728.pfb" 1215737283 131438 3aa300b3e40e5c8ba7b4e5c6cebc5dd6 ""
  "/usr/local/texlive/2012/texmf-dist/fonts/type1/public/cm-super/sftt0800.pfb" 1215737283 175641 e30a691dc1402b08fd6535cf8a31e5b7 ""
  "/usr/local/texlive/2012/texmf-dist/tex/context/base/supp-pdf.mkii" 1337017135 71627 94eb9990bed73c364d7f53f960cc8c5b ""
  "/usr/local/texlive/2012/texmf-dist/tex/generic/babel/babel.def" 1312409092 29228 2fe939254f4b17ac18a8c0fb8aa39dff ""
  "/usr/local/texlive/2012/texmf-dist/tex/generic/babel/babel.sty" 1312409092 9157 414843659be58197b1510e2317ef76d9 ""
  "/usr/local/texlive/2012/texmf-dist/tex/generic/babel/czech.ldf" 1215520807 15910 20b36fee6c6cdcfa90232891da7a9f34 ""
  "/usr/local/texlive/2012/texmf-dist/tex/generic/oberdiek/catchfile.sty" 1335995445 8493 4e5537dfd443b37833e5bc8675bbe606 ""
  "/usr/local/texlive/2012/texmf-dist/tex/generic/oberdiek/etexcmds.sty" 1335995445 7612 c47308d923ec19888707b0f1792b326a ""
  "/usr/local/texlive/2012/texmf-dist/tex/generic/oberdiek/ifluatex.sty" 1303254447 7324 11d14f318d865f420e692d4e6c9c18c3 ""
  "/usr/local/texlive/2012/texmf-dist/tex/generic/oberdiek/ifpdf.sty" 1303254447 7140 ece2cc23d9f20e1f53975ac167f42d3e ""
  "/usr/local/texlive/2012/texmf-dist/tex/generic/oberdiek/infwarerr.sty" 1335995445 8253 3bdedc8409aa5d290a2339be6f09af03 ""
  "/usr/local/texlive/2012/texmf-dist/tex/generic/oberdiek/kvdefinekeys.sty" 1335995445 5152 387d9200f396b498d5fd679ae44ed898 ""
  "/usr/local/texlive/2012/texmf-dist/tex/generic/oberdiek/kvsetkeys.sty" 1335995445 14040 8de9f47fabc4ca3bd69b6d795e32751c ""
  "/usr/local/texlive/2012/texmf-dist/tex/generic/oberdiek/ltxcmds.sty" 1335995445 18425 775b341047ce304520cc7c11ca41392e ""
  "/usr/local/texlive/2012/texmf-dist/tex/generic/oberdiek/pdftexcmds.sty" 1335995445 19987 01cb2f3c1d21e5f05711b7fd50b17f2a ""
  "/usr/local/texlive/2012/texmf-dist/tex/generic/pgf/basiclayer/pgfcore.code.tex" 1288312291 1006 b103be0bfc8c1682ff1fa9760697a329 ""
  "/usr/local/texlive/2012/texmf-dist/tex/generic/pgf/basiclayer/pgfcorearrows.code.tex" 1288312291 17851 c112f6fe3b1889f91d54568be38c934d ""
  "/usr/local/texlive/2012/texmf-dist/tex/generic/pgf/basiclayer/pgfcoreexternal.code.tex" 1288312291 17756 ee5bc7b20f746062c721d3fb3561530d ""
  "/usr/local/texlive/2012/texmf-dist/tex/generic/pgf/basiclayer/pgfcoregraphicstate.code.tex" 1288312291 5784 795b041ac60be7a46c83610345e459cb ""
  "/usr/local/texlive/2012/texmf-dist/tex/generic/pgf/basiclayer/pgfcoreimage.code.tex" 1288312291 7101 668c6a35cbea2ae302bbff4c62370bbd ""
  "/usr/local/texlive/2012/texmf-dist/tex/generic/pgf/basiclayer/pgfcorelayers.code.tex" 1288312291 2995 7ef0769105aad1182125ada52b0cbaa6 ""
  "/usr/local/texlive/2012/texmf-dist/tex/generic/pgf/basiclayer/pgfcoreobjects.code.tex" 1203877327 2631 7eefa6cdbefd8d4e2bad7262cf1094cd ""
  "/usr/local/texlive/2012/texmf-dist/tex/generic/pgf/basiclayer/pgfcorepathconstruct.code.tex" 1288312291 43868 70ba8731b9094652f05c653fd1011379 ""
  "/usr/local/texlive/2012/texmf-dist/tex/generic/pgf/basiclayer/pgfcorepathprocessing.code.tex" 1288312291 14189 bb3d2e0069dd43b25211385d7cac9d2c ""
  "/usr/local/texlive/2012/texmf-dist/tex/generic/pgf/basiclayer/pgfcorepathusage.code.tex" 1288312291 7725 917b5feaf8acae1fd979a8564eaf989c ""
  "/usr/local/texlive/2012/texmf-dist/tex/generic/pgf/basiclayer/pgfcorepatterns.code.tex" 1288312291 9518 b56e94efcd163a86f7e645fed6165055 ""
  "/usr/local/texlive/2012/texmf-dist/tex/generic/pgf/basiclayer/pgfcorepoints.code.tex" 1288312291 32491 d736244a6b667da89812f9b71e53016f ""
  "/usr/local/texlive/2012/texmf-dist/tex/generic/pgf/basiclayer/pgfcorequick.code.tex" 1288312291 3052 e5672c657232fd63b0a9853b0746297c ""
  "/usr/local/texlive/2012/texmf-dist/tex/generic/pgf/basiclayer/pgfcorescopes.code.tex" 1288312291 15994 10d20fb800ca222911f363d456007171 ""
  "/usr/local/texlive/2012/texmf-dist/tex/generic/pgf/basiclayer/pgfcoreshade.code.tex" 1288312291 21374 d2661129e65955d45fb741c95bb78d7a ""
  "/usr/local/texlive/2012/texmf-dist/tex/generic/pgf/basiclayer/pgfcoretransformations.code.tex" 1288312291 16741 1d0bcd33afcd45b27dceb8fd40f9b4e5 ""
  "/usr/local/texlive/2012/texmf-dist/tex/generic/pgf/basiclayer/pgfcoretransparency.code.tex" 1203727794 6577 2d95347b651f18f98fead9415f300f4a ""
  "/usr/local/texlive/2012/texmf-dist/tex/generic/pgf/frontendlayer/tikz/libraries/tikzlibraryarrows.code.tex" 1203727794 437 cf40f841f40822be6cb995f8b47112fd ""
  "/usr/local/texlive/2012/texmf-dist/tex/generic/pgf/frontendlayer/tikz/libraries/tikzlibrarycalc.code.tex" 1288312291 14490 6a653859ebfaf7b159324bc9a3739f12 ""
  "/usr/local/texlive/2012/texmf-dist/tex/generic/pgf/frontendlayer/tikz/libraries/tikzlibrarychains.code.tex" 1288312291 6951 767f89656b3722d58afe16f405969103 ""
  "/usr/local/texlive/2012/texmf-dist/tex/generic/pgf/frontendlayer/tikz/libraries/tikzlibrarydecorations.code.tex" 1288312291 5421 9d01acf78e91fee342e0625c21643297 ""
  "/usr/local/texlive/2012/texmf-dist/tex/generic/pgf/frontendlayer/tikz/libraries/tikzlibrarydecorations.pathmorphing.code.tex" 1203727794 319 d246cee5ce1aaf2afe558acd4731d5ba ""
  "/usr/local/texlive/2012/texmf-dist/tex/generic/pgf/frontendlayer/tikz/libraries/tikzlibrarydecorations.pathreplacing.code.tex" 1288312291 1255 7940bad47e253420d587a4a875c7c06c ""
  "/usr/local/texlive/2012/texmf-dist/tex/generic/pgf/frontendlayer/tikz/libraries/tikzlibrarymatrix.code.tex" 1288312291 4036 39062384817cddc1faab020c25140e32 ""
  "/usr/local/texlive/2012/texmf-dist/tex/generic/pgf/frontendlayer/tikz/libraries/tikzlibrarypositioning.code.tex" 1288312291 4034 0a8cd33cf30d262ec971380666acb2d0 ""
  "/usr/local/texlive/2012/texmf-dist/tex/generic/pgf/frontendlayer/tikz/libraries/tikzlibraryshapes.arrows.code.tex" 1203727794 527 a8d3e34fbab3dc317cf9b06aa5cdc2e4 ""
  "/usr/local/texlive/2012/texmf-dist/tex/generic/pgf/frontendlayer/tikz/libraries/tikzlibraryshapes.callouts.code.tex" 1203727794 1158 d6338189706f4587fbc6175c0fb41f17 ""
  "/usr/local/texlive/2012/texmf-dist/tex/generic/pgf/frontendlayer/tikz/libraries/tikzlibraryshapes.code.tex" 1203727794 607 40dc15d3efcf10f095866a94bd544bc1 ""
  "/usr/local/texlive/2012/texmf-dist/tex/generic/pgf/frontendlayer/tikz/libraries/tikzlibraryshapes.geometric.code.tex" 1203727794 457 ffe9f8b9d108b5f729fd86c78c63589a ""
  "/usr/local/texlive/2012/texmf-dist/tex/generic/pgf/frontendlayer/tikz/libraries/tikzlibraryshapes.misc.code.tex" 1203727794 447 e87a0add254801e837fa6c18f61f340f ""
  "/usr/local/texlive/2012/texmf-dist/tex/generic/pgf/frontendlayer/tikz/libraries/tikzlibraryshapes.multipart.code.tex" 1203727794 1004 86af66805a9d0b62bd41ea0796a64d50 ""
  "/usr/local/texlive/2012/texmf-dist/tex/generic/pgf/frontendlayer/tikz/libraries/tikzlibraryshapes.symbols.code.tex" 1203727794 590 7e11000a24bbee9ae2a4cd0e5d88e58c ""
  "/usr/local/texlive/2012/texmf-dist/tex/generic/pgf/frontendlayer/tikz/libraries/tikzlibrarytopaths.code.tex" 1288312291 11599 d694704a88e2f9007c996d3a6a4d629c ""
  "/usr/local/texlive/2012/texmf-dist/tex/generic/pgf/frontendlayer/tikz/libraries/tikzlibrarytrees.code.tex" 1288312291 3420 7b6c7f025802bf2a16aaa31df020be3b ""
  "/usr/local/texlive/2012/texmf-dist/tex/generic/pgf/frontendlayer/tikz/tikz.code.tex" 1288312291 141845 db379d46f557a21d1a89b87a59bd9c88 ""
  "/usr/local/texlive/2012/texmf-dist/tex/generic/pgf/libraries/decorations/pgflibrarydecorations.pathmorphing.code.tex" 1288312291 8854 7be3c3b9eb0de90885a881085ce8e118 ""
  "/usr/local/texlive/2012/texmf-dist/tex/generic/pgf/libraries/decorations/pgflibrarydecorations.pathreplacing.code.tex" 1288312291 7089 02ec01183269fb6991e0be82d034128a ""
  "/usr/local/texlive/2012/texmf-dist/tex/generic/pgf/libraries/pgflibraryarrows.code.tex" 1288312291 31736 82cd4d0f3c0d990309dbb025cd282679 ""
  "/usr/local/texlive/2012/texmf-dist/tex/generic/pgf/libraries/pgflibraryplothandlers.code.tex" 1288312291 30458 cb99d585a0cb84cc8870d0c59953a396 ""
  "/usr/local/texlive/2012/texmf-dist/tex/generic/pgf/libraries/shapes/pgflibraryshapes.arrows.code.tex" 1288312291 69900 cbd9fafb795a493fb2a3b73713994b78 ""
  "/usr/local/texlive/2012/texmf-dist/tex/generic/pgf/libraries/shapes/pgflibraryshapes.callouts.code.tex" 1288312291 28309 4991f7962a3b24a24f59641a287dab82 ""
  "/usr/local/texlive/2012/texmf-dist/tex/generic/pgf/libraries/shapes/pgflibraryshapes.geometric.code.tex" 1288312291 132566 291d42c3b23fdb5c47e51b36a5fea0c4 ""
  "/usr/local/texlive/2012/texmf-dist/tex/generic/pgf/libraries/shapes/pgflibraryshapes.misc.code.tex" 1288312291 37651 16d760ba2b3393c9e7812d875bac2447 ""
  "/usr/local/texlive/2012/texmf-dist/tex/generic/pgf/libraries/shapes/pgflibraryshapes.multipart.code.tex" 1288312291 49891 e74f8181c57d9359c941b6bee48fccc2 ""
  "/usr/local/texlive/2012/texmf-dist/tex/generic/pgf/libraries/shapes/pgflibraryshapes.symbols.code.tex" 1288312291 75894 62eeda314661aa142a97c43b7b2e7a66 ""
  "/usr/local/texlive/2012/texmf-dist/tex/generic/pgf/math/pgfmath.code.tex" 1288312291 378 6ef5723aad20c1a3d29639e179a42dd6 ""
  "/usr/local/texlive/2012/texmf-dist/tex/generic/pgf/math/pgfmathcalc.code.tex" 1288312291 13312 f9d89166b99ea7e00e77858fe0194db1 ""
  "/usr/local/texlive/2012/texmf-dist/tex/generic/pgf/math/pgfmathfloat.code.tex" 1288312291 83664 208cb30de41494880aa77fffb3a1ccda ""
  "/usr/local/texlive/2012/texmf-dist/tex/generic/pgf/math/pgfmathfunctions.base.code.tex" 1288312291 8606 58f348f09f02ad9c20b10c1005bd9663 ""
  "/usr/local/texlive/2012/texmf-dist/tex/generic/pgf/math/pgfmathfunctions.basic.code.tex" 1288312291 19855 ed1993a13913c58cb372b1d66f20ea17 ""
  "/usr/local/texlive/2012/texmf-dist/tex/generic/pgf/math/pgfmathfunctions.code.tex" 1288312291 7724 738eefe8218f0e08dd2c317adbca7db5 ""
  "/usr/local/texlive/2012/texmf-dist/tex/generic/pgf/math/pgfmathfunctions.comparison.code.tex" 1288312291 3534 c7f28fbac13616513e513efe93b8569b ""
  "/usr/local/texlive/2012/texmf-dist/tex/generic/pgf/math/pgfmathfunctions.misc.code.tex" 1288312291 8574 010fc7ab92ca16c2da0f097ae7066b0d ""
  "/usr/local/texlive/2012/texmf-dist/tex/generic/pgf/math/pgfmathfunctions.random.code.tex" 1288312291 6964 d4b5e82dabddda1c728063bb9c8a22ba ""
  "/usr/local/texlive/2012/texmf-dist/tex/generic/pgf/math/pgfmathfunctions.round.code.tex" 1288312291 2688 139c6abc86761a6190c2f4bef5d752be ""
  "/usr/local/texlive/2012/texmf-dist/tex/generic/pgf/math/pgfmathfunctions.trigonometric.code.tex" 1288312291 86620 8a979a1502115110f3469c7579238489 ""
  "/usr/local/texlive/2012/texmf-dist/tex/generic/pgf/math/pgfmathparser.code.tex" 1288312291 27428 c613a3d1b703431360c8ef5579d00d85 ""
  "/usr/local/texlive/2012/texmf-dist/tex/generic/pgf/math/pgfmathutil.code.tex" 1288312291 7107 704b307dcd1ea898b650a4d17fe53fbe ""
  "/usr/local/texlive/2012/texmf-dist/tex/generic/pgf/modules/pgfmoduledecorations.code.tex" 1288312291 69920 33cbaeaff7d4eb3687bb3569bad984c4 ""
  "/usr/local/texlive/2012/texmf-dist/tex/generic/pgf/modules/pgfmodulematrix.code.tex" 1288312291 20561 36e4cfc08771b8946e4669f1caa099d3 ""
  "/usr/local/texlive/2012/texmf-dist/tex/generic/pgf/modules/pgfmoduleplot.code.tex" 1288312291 10369 a8edc63c9a6be08baf6e4c402df10590 ""
  "/usr/local/texlive/2012/texmf-dist/tex/generic/pgf/modules/pgfmoduleshapes.code.tex" 1288312291 38030 dfa64639c84226b6d8ea0a34ae778755 ""
  "/usr/local/texlive/2012/texmf-dist/tex/generic/pgf/systemlayer/pgf.cfg" 1288312291 978 15af626ebd3d4d790aac19170dac04f2 ""
  "/usr/local/texlive/2012/texmf-dist/tex/generic/pgf/systemlayer/pgfsys-common-pdf.def" 1288312291 3630 7c64370dc4387995125f5b825096be23 ""
  "/usr/local/texlive/2012/texmf-dist/tex/generic/pgf/systemlayer/pgfsys-pdftex.def" 1288312291 12510 e20a03f54abbfc8914dba322a7a3dba7 ""
  "/usr/local/texlive/2012/texmf-dist/tex/generic/pgf/systemlayer/pgfsys.code.tex" 1288312291 32236 3923b93ea40b486a68f35dd7558f335c ""
  "/usr/local/texlive/2012/texmf-dist/tex/generic/pgf/systemlayer/pgfsysprotocol.code.tex" 1203877327 1983 b5994ebbcee17f1ba3d29bb1bd696fcf ""
  "/usr/local/texlive/2012/texmf-dist/tex/generic/pgf/systemlayer/pgfsyssoftpath.code.tex" 1288312291 7677 2eb6cc84c604878c08c9d943bbbc6e32 ""
  "/usr/local/texlive/2012/texmf-dist/tex/generic/pgf/utilities/pgffor.code.tex" 1288312291 21943 6710bea9dc92856d36a3dd219c3fdb8b ""
  "/usr/local/texlive/2012/texmf-dist/tex/generic/pgf/utilities/pgfkeys.code.tex" 1288312291 32925 ac47add413403603a8d3c47e035bd76c ""
  "/usr/local/texlive/2012/texmf-dist/tex/generic/pgf/utilities/pgfkeysfiltered.code.tex" 1288312291 33372 15f61ab79cad6ae1941b5caee584016a ""
  "/usr/local/texlive/2012/texmf-dist/tex/generic/pgf/utilities/pgfrcs.code.tex" 1288312291 2320 086533930e1dade214bdcd74a189c5a5 ""
  "/usr/local/texlive/2012/texmf-dist/tex/generic/pgf/utilities/pgfutil-common.tex" 1288312291 13382 a0507b5422f675ba8588f019a2f8b68e ""
  "/usr/local/texlive/2012/texmf-dist/tex/generic/pgf/utilities/pgfutil-latex.def" 1288312291 2771 d32e3f533abf44397dd690e41e934cdc ""
  "/usr/local/texlive/2012/texmf-dist/tex/generic/xkeyval/xkeyval.tex" 1218672668 25144 3dbdfdff24b60153380665dd8aab373c ""
  "/usr/local/texlive/2012/texmf-dist/tex/latex/acronym/acronym.sty" 1284246097 15024 646d08de61dd4be0beca30b0c385f021 ""
  "/usr/local/texlive/2012/texmf-dist/tex/latex/algorithm2e/algorithm2e.sty" 1260924808 127367 36edded4e4d68334337b859df4dae855 ""
  "/usr/local/texlive/2012/texmf-dist/tex/latex/amsmath/amsgen.sty" 1156703163 5453 08b555fa01ef74ce33d74813d74c2362 ""
  "/usr/local/texlive/2012/texmf-dist/tex/latex/amsmath/amstext.sty" 1156703163 3745 bcdc4858c6f7cfeb8e957b4284216414 ""
  "/usr/local/texlive/2012/texmf-dist/tex/latex/base/article.cls" 1254151887 20571 b8bd218bf2e18b4f5817ee643cd9c515 ""
  "/usr/local/texlive/2012/texmf-dist/tex/latex/base/fontenc.sty" 1254151887 4435 b97063eb2f20be499e7725926af85c55 ""
  "/usr/local/texlive/2012/texmf-dist/tex/latex/base/ifthen.sty" 1254151887 5022 2ec7815b07dc68e65542e23a180bc839 ""
  "/usr/local/texlive/2012/texmf-dist/tex/latex/base/inputenc.sty" 1254151887 4388 1cb2ca8d423695bd22ea8d126c276f33 ""
  "/usr/local/texlive/2012/texmf-dist/tex/latex/base/omsenc.dfu" 1254151887 1868 39c80c053f689193a1ca9a83d05b2744 ""
  "/usr/local/texlive/2012/texmf-dist/tex/latex/base/ot1enc.dfu" 1254151887 2620 9a36ef7e0369aa29d9d298a6bf19588e ""
  "/usr/local/texlive/2012/texmf-dist/tex/latex/base/size10.clo" 1254151887 9042 248dfba326a1b8733d6bb8e0a3ac1e49 ""
  "/usr/local/texlive/2012/texmf-dist/tex/latex/base/t1cmtt.fd" 1254151887 2083 a6bdb02552dfa1602e8c6cc47e0ba8cf ""
  "/usr/local/texlive/2012/texmf-dist/tex/latex/base/t1enc.def" 1254151887 9172 67c33288b50eb57eab968f345e8befb0 ""
  "/usr/local/texlive/2012/texmf-dist/tex/latex/base/t1enc.dfu" 1254151887 7480 2a6bcf9edfeb9ff088a3f0cf7f1a196c ""
  "/usr/local/texlive/2012/texmf-dist/tex/latex/base/textcomp.sty" 1312312491 15509 394096bec6a284398e0b3ead6d33977e ""
  "/usr/local/texlive/2012/texmf-dist/tex/latex/base/ts1cmr.fd" 1254151887 2070 a9b43c0e3cee84bb3927d80d70ee10ce ""
  "/usr/local/texlive/2012/texmf-dist/tex/latex/base/ts1enc.def" 1254151887 7630 8f51e48866ebfd08b8299888bbe81549 ""
  "/usr/local/texlive/2012/texmf-dist/tex/latex/base/ts1enc.dfu" 1254151887 4798 d0223689adb350a9cf3c5009ca803474 ""
  "/usr/local/texlive/2012/texmf-dist/tex/latex/base/utf8.def" 1254151887 6350 d390538f995713c986118b8607d58f49 ""
  "/usr/local/texlive/2012/texmf-dist/tex/latex/beamer/translator/dicts/translator-basic-dictionary/translator-basic-dictionary-English.dict" 1279125320 3435 0a4d096dde3f8fe682c2aedd33b8137d ""
  "/usr/local/texlive/2012/texmf-dist/tex/latex/beamer/translator/translator-language-mappings.tex" 1338588496 5067 f1bb98f63e0761f897f48a159127fbb6 ""
  "/usr/local/texlive/2012/texmf-dist/tex/latex/beamer/translator/translator.sty" 1279125320 3678 92ef9c02674e78045cb952afa23a37ba ""
  "/usr/local/texlive/2012/texmf-dist/tex/latex/bigfoot/suffix.sty" 1153176982 3097 2dff3f11a61182b0df43010ba0d47eaa ""
  "/usr/local/texlive/2012/texmf-dist/tex/latex/booktabs/booktabs.sty" 1211777752 6375 989ecfb545a13610facc71ae7e40ced1 ""
  "/usr/local/texlive/2012/texmf-dist/tex/latex/etex-pkg/etex.sty" 1214928088 15274 9f6a2469ac8ebe6168e12b8f32cbe599 ""
  "/usr/local/texlive/2012/texmf-dist/tex/latex/fancyvrb/fancyvrb.sty" 1274829816 45360 a0833d32f1b541964596b02870342d5a ""
  "/usr/local/texlive/2012/texmf-dist/tex/latex/float/float.sty" 1137110151 6749 16d2656a1984957e674b149555f1ea1d ""
  "/usr/local/texlive/2012/texmf-dist/tex/latex/graphics/graphics.sty" 1254151804 14183 42a8fc761b806986eef292369afc2988 ""
  "/usr/local/texlive/2012/texmf-dist/tex/latex/graphics/graphicx.sty" 1156702488 7882 3bd78469d444e8d494e27cfd7ca92719 ""
  "/usr/local/texlive/2012/texmf-dist/tex/latex/graphics/keyval.sty" 1156702488 2266 7054435e4584a41cf53b0a7ca624d0cb ""
  "/usr/local/texlive/2012/texmf-dist/tex/latex/graphics/trig.sty" 1156702488 3153 c50e6bd54d2dd3933fc52bcf369bec4a ""
  "/usr/local/texlive/2012/texmf-dist/tex/latex/hyphenat/hyphenat.sty" 1252025529 5798 0437b031e663035b68539cf7ac7c8eeb ""
  "/usr/local/texlive/2012/texmf-dist/tex/latex/ifplatform/ifplatform.sty" 1295828922 3847 7836cfc12cc39575e0ea1f4b4bc16b1a ""
  "/usr/local/texlive/2012/texmf-dist/tex/latex/l3kernel/expl3.sty" 1335224134 8824 dd02514615d91d7431465025b2e0328b ""
  "/usr/local/texlive/2012/texmf-dist/tex/latex/l3kernel/l3basics.sty" 1335224134 27783 cf8c61078018dc6f6a62e10d822963c1 ""
  "/usr/local/texlive/2012/texmf-dist/tex/latex/l3kernel/l3bootstrap.sty" 1327013353 8530 52c968dbb0674274f1818abbffbb1f08 ""
  "/usr/local/texlive/2012/texmf-dist/tex/latex/l3kernel/l3box.sty" 1335224134 22896 54820b67f31159c4cc2b029b9780b677 ""
  "/usr/local/texlive/2012/texmf-dist/tex/latex/l3kernel/l3clist.sty" 1335224134 17882 17347b380db33608577fe5c8cb03ce92 ""
  "/usr/local/texlive/2012/texmf-dist/tex/latex/l3kernel/l3coffins.sty" 1335224134 41986 475b6bceb596db74e3d7edc2552dfaac ""
  "/usr/local/texlive/2012/texmf-dist/tex/latex/l3kernel/l3color.sty" 1316212541 2010 c8625bb5f05320f2c5a0ce95bf764228 ""
  "/usr/local/texlive/2012/texmf-dist/tex/latex/l3kernel/l3expan.sty" 1330389651 13713 a2128e9ab0d4822c2a197cd7590ff21f ""
  "/usr/local/texlive/2012/texmf-dist/tex/latex/l3kernel/l3file.sty" 1335224134 21229 a6e8f0489ca82f8eabd14e230fdf7524 ""
  "/usr/local/texlive/2012/texmf-dist/tex/latex/l3kernel/l3fp.sty" 1335224134 117662 54e29aa2eb17475d20d6a3729f97e1af ""
  "/usr/local/texlive/2012/texmf-dist/tex/latex/l3kernel/l3int.sty" 1335224134 19915 49faa22c73443c182085160e41179a63 ""
  "/usr/local/texlive/2012/texmf-dist/tex/latex/l3kernel/l3keys.sty" 1335224134 24722 aa2254bba50481a2a7075748462fe845 ""
  "/usr/local/texlive/2012/texmf-dist/tex/latex/l3kernel/l3luatex.sty" 1330389651 5597 1d7658cf4fd70f88b13c3ea8f9f10d82 ""
  "/usr/local/texlive/2012/texmf-dist/tex/latex/l3kernel/l3msg.sty" 1335224134 25902 577a268883effd7767ef43be6896fe1d ""
  "/usr/local/texlive/2012/texmf-dist/tex/latex/l3kernel/l3names.sty" 1335224134 28239 94fc38c74306b17ec534d0edc18ca390 ""
  "/usr/local/texlive/2012/texmf-dist/tex/latex/l3kernel/l3prg.sty" 1335224134 20045 5ae100fea976ea34d9fcc9e047dc9f14 ""
  "/usr/local/texlive/2012/texmf-dist/tex/latex/l3kernel/l3prop.sty" 1335224134 11739 181ae37419eadeeac232ef8f097492b1 ""
  "/usr/local/texlive/2012/texmf-dist/tex/latex/l3kernel/l3quark.sty" 1330389651 5058 e9bb6b7cd55bdba908ed228ca2a30abd ""
  "/usr/local/texlive/2012/texmf-dist/tex/latex/l3kernel/l3seq.sty" 1335224134 19819 69796afae59ebca23f9c1b2ef60a40ed ""
  "/usr/local/texlive/2012/texmf-dist/tex/latex/l3kernel/l3skip.sty" 1335224134 15592 1bc7246abbc084ceca16f867343b38bc ""
  "/usr/local/texlive/2012/texmf-dist/tex/latex/l3kernel/l3tl.sty" 1335224134 27341 7f3e7044a9d37ea50c0c7ff2e2347765 ""
  "/usr/local/texlive/2012/texmf-dist/tex/latex/l3kernel/l3token.sty" 1335224134 26056 14fc11bbbcdd62f4e1646a865650ed8f ""
  "/usr/local/texlive/2012/texmf-dist/tex/latex/l3packages/l3keys2e/l3keys2e.sty" 1335224093 5029 3dad1aeb54961f156ad107289ba927f3 ""
  "/usr/local/texlive/2012/texmf-dist/tex/latex/l3packages/xfrac/xfrac.sty" 1330389631 15307 a37a9688806653afabd8d68ee09748da ""
  "/usr/local/texlive/2012/texmf-dist/tex/latex/l3packages/xparse/xparse.sty" 1335224093 53592 1bd3a84b34ab4fa56f2d1d04632a1c85 ""
  "/usr/local/texlive/2012/texmf-dist/tex/latex/l3packages/xtemplate/xtemplate.sty" 1335224093 47879 3956ae9f8b79ada64b71c27449f31671 ""
  "/usr/local/texlive/2012/texmf-dist/tex/latex/latexconfig/color.cfg" 1254097189 802 7b8c8d72c24d795ed7720e4dfd29bff3 ""
  "/usr/local/texlive/2012/texmf-dist/tex/latex/latexconfig/epstopdf-sys.cfg" 1279039959 678 4792914a8f45be57bb98413425e4c7af ""
  "/usr/local/texlive/2012/texmf-dist/tex/latex/latexconfig/graphics.cfg" 1278958963 3563 d35e897cae3b8c6848f6677b73370b54 ""
  "/usr/local/texlive/2012/texmf-dist/tex/latex/listings/listings.cfg" 1213130811 1745 ae6fbed3255376b850f8b4ef89faef50 ""
  "/usr/local/texlive/2012/texmf-dist/tex/latex/listings/listings.sty" 1213130811 80175 a550732aef92a278ec9bed572025bd8e ""
  "/usr/local/texlive/2012/texmf-dist/tex/latex/listings/lstmisc.sty" 1213130811 76974 d9d4762e984ff3346653b91fbcf676e9 ""
  "/usr/local/texlive/2012/texmf-dist/tex/latex/microtype/microtype.cfg" 1263340647 22258 6dbb70a4206c1839befb4206d520cd17 ""
  "/usr/local/texlive/2012/texmf-dist/tex/latex/microtype/microtype.sty" 1263340647 112214 3a8b830215fef78a6aed0cef3358d482 ""
  "/usr/local/texlive/2012/texmf-dist/tex/latex/microtype/mt-cmr.cfg" 1263340647 21393 e077fdae7349340e5d0361c8a5057137 ""
  "/usr/local/texlive/2012/texmf-dist/tex/latex/minted/minted.sty" 1316384941 8434 0c869a5716740159bd54211da1c38632 ""
  "/usr/local/texlive/2012/texmf-dist/tex/latex/ms/everyshi.sty" 1177890616 3878 6aa7c08ff2621006e0603349e40a30a8 ""
  "/usr/local/texlive/2012/texmf-dist/tex/latex/natbib/natbib.sty" 1291685959 45456 1c8843383c0bd05870c45fa0ebea6cc2 ""
  "/usr/local/texlive/2012/texmf-dist/tex/latex/oberdiek/epstopdf-base.sty" 1303254447 12029 04d7fdf76e0464c23b5aa3a727952d7c ""
  "/usr/local/texlive/2012/texmf-dist/tex/latex/oberdiek/grfext.sty" 1335995445 7075 bd0c34fbf1ae8fd1debd2a554e41b2d5 ""
  "/usr/local/texlive/2012/texmf-dist/tex/latex/oberdiek/kvoptions.sty" 1335995445 22417 c74ff4af6a1aa2b65d1924020edbbe11 ""
  "/usr/local/texlive/2012/texmf-dist/tex/latex/pdftex-def/pdftex.def" 1306616590 55368 3c8a0d99822330f2dfabc0dfb09ce897 ""
  "/usr/local/texlive/2012/texmf-dist/tex/latex/pgf/basiclayer/pgf.sty" 1203877327 1190 7fc0a2dca176dcabef03fed7aa3e5e7e ""
  "/usr/local/texlive/2012/texmf-dist/tex/latex/pgf/basiclayer/pgfcore.sty" 1288312291 410 5bf12ea7330e5f12c445332a4fe9a263 ""
  "/usr/local/texlive/2012/texmf-dist/tex/latex/pgf/compatibility/pgfcomp-version-0-65.sty" 1203877327 21115 facf03b7dbe5ea2f5f1dce1ac84b5d05 ""
  "/usr/local/texlive/2012/texmf-dist/tex/latex/pgf/compatibility/pgfcomp-version-1-18.sty" 1203727794 1091 d9163d29def82ee90370c8a63667742c ""
  "/usr/local/texlive/2012/texmf-dist/tex/latex/pgf/frontendlayer/tikz.sty" 1203877327 339 592cf35cba3d400082b8a9a5d0199d70 ""
  "/usr/local/texlive/2012/texmf-dist/tex/latex/pgf/systemlayer/pgfsys.sty" 1203877327 362 4d082b7c595b2ffec199f5351c4303c9 ""
  "/usr/local/texlive/2012/texmf-dist/tex/latex/pgf/utilities/pgffor.sty" 1288312291 323 c1a2c1d11990f32ace1f893aa7fee540 ""
  "/usr/local/texlive/2012/texmf-dist/tex/latex/pgf/utilities/pgfkeys.sty" 1203727794 274 4cad6e665cc93ac2ac979039a94fa1e1 ""
  "/usr/local/texlive/2012/texmf-dist/tex/latex/pgf/utilities/pgfrcs.sty" 1203877327 325 2bcd023400636339210573e2b3ee298b ""
  "/usr/local/texlive/2012/texmf-dist/tex/latex/preprint/balance.sty" 1137110595 3366 d938ad2440edc1ea1c9042843580ec42 ""
  "/usr/local/texlive/2012/texmf-dist/tex/latex/relsize/relsize.sty" 1316816553 14180 da0fb6dfec90508309336efa2779ad7d ""
  "/usr/local/texlive/2012/texmf-dist/tex/latex/siunitx/config/siunitx-abbreviations.cfg" 1336175271 4669 256c73bb39cbecd5784b1cc160919ea3 ""
  "/usr/local/texlive/2012/texmf-dist/tex/latex/siunitx/config/siunitx-binary.cfg" 1336175271 1726 2d54a22f654e6b30d36aff16fd420e16 ""
  "/usr/local/texlive/2012/texmf-dist/tex/latex/siunitx/config/siunitx-version-1.cfg" 1336175271 31542 82d0d5505b3cf7473e2e275539796615 ""
  "/usr/local/texlive/2012/texmf-dist/tex/latex/siunitx/siunitx.sty" 1336175271 264912 1d0aaff337aef693f1a08420d5b492eb ""
  "/usr/local/texlive/2012/texmf-dist/tex/latex/subfigure/subfigure.cfg" 1167176009 2062 a0e7d66e09e508f51289a656aec06ed2 ""
  "/usr/local/texlive/2012/texmf-dist/tex/latex/subfigure/subfigure.sty" 1167176009 15188 91281c7ddbccfa54a8e0c3b56ab5aa72 ""
  "/usr/local/texlive/2012/texmf-dist/tex/latex/todonotes/todonotes.sty" 1319324277 15823 fc044d07b8207497ecfa69979f320526 ""
  "/usr/local/texlive/2012/texmf-dist/tex/latex/tools/array.sty" 1254151720 13146 3e38b06d6e7ca62ce1bdb63b0d6148a5 ""
  "/usr/local/texlive/2012/texmf-dist/tex/latex/tools/calc.sty" 1254151720 10075 18f0ccff816231e9905cd2b3a482a622 ""
  "/usr/local/texlive/2012/texmf-dist/tex/latex/tools/xspace.sty" 1312409015 4405 b7f0681f78908bf1aa3cd73228e9fd38 ""
  "/usr/local/texlive/2012/texmf-dist/tex/latex/xcolor/xcolor.sty" 1169481954 55224 a43bab84e0ac5e6efcaf9a98bde73a94 ""
  "/usr/local/texlive/2012/texmf-dist/tex/latex/xkeyval/xkeyval.sty" 1218672668 4934 8ea45c150f1216b4eb8e3b63954e4bbf ""
  "/usr/local/texlive/2012/texmf-var/fonts/map/pdftex/updmap/pdftex.map" 1365354595 845915 705bd8229da84ede842f42ead9863e70 ""
  "/usr/local/texlive/2012/texmf-var/web2c/pdftex/pdflatex.fmt" 1365354630 3691571 55c1619de25d21342af5221e4138d0ec ""
  "/usr/local/texlive/2012/texmf.cnf" 1341108668 572 7ea7194897937febeb63145e1c3a1f03 ""
  "/usr/local/texlive/2012/texmf/web2c/texmf.cnf" 1336865692 31299 729e216d9b945005c0d4b079c0500bc9 ""
  "Disclaimer.aex" 0 -1 0 ""
  "Disclaimer.aux" 1381865344 210 31daaa8dfa6d8b09e8702ac67dc0364c ""
  "Disclaimer.out.pyg" 0 -1 0 ""
  "Disclaimer.pyg" 0 -1 0 ""
  "Disclaimer.tex" 1381865333 4492 334f40eb4f1522db9f879ef040675046 ""
  "Disclaimer.w18" 0 -1 0 ""
  (generated)
  "Disclaimer.pyg"
  "Disclaimer.aux"
  "Disclaimer.log"
  "Disclaimer.pdf"
